{
    "MPN": [
        false,
        "KMR"
    ],
    "datasheet": [
        false,
        ""
    ],
    "description": [
        false,
        "KMR series smt switch"
    ],
    "entity": "09952b1f-1221-48ad-896c-4481914e3af2",
    "inherit_model": false,
    "inherit_tags": false,
    "manufacturer": [
        false,
        "C&K"
    ],
    "model": "00000000-0000-0000-0000-000000000000",
    "orderable_MPNs": {
        "cac9941e-1981-4e23-9e1c-8c10c403cfd8": "KMR231G LFS"
    },
    "package": "f6d580fb-e10b-4676-8910-07314812afbb",
    "pad_map": {
        "0c49d972-600b-4515-b013-0539ab0e21e3": {
            "gate": "1926ff13-c95b-49f9-937c-35ac08ba9efb",
            "pin": "97955848-10f4-4667-b838-46f6bb8fe085"
        },
        "19a9eb65-f656-490b-9c43-2f612c9d7eee": {
            "gate": "1926ff13-c95b-49f9-937c-35ac08ba9efb",
            "pin": "97955848-10f4-4667-b838-46f6bb8fe085"
        },
        "3a02c6ab-cad3-4e81-8341-f26498a63875": {
            "gate": "1926ff13-c95b-49f9-937c-35ac08ba9efb",
            "pin": "831b482b-82af-40ba-8cc0-5e272f25cc2c"
        },
        "f672e596-0b3c-4724-b7ee-5b4747902277": {
            "gate": "1926ff13-c95b-49f9-937c-35ac08ba9efb",
            "pin": "831b482b-82af-40ba-8cc0-5e272f25cc2c"
        }
    },
    "parametric": {},
    "tags": [
        "button",
        "passive",
        "switch"
    ],
    "type": "part",
    "uuid": "2523ea02-1898-4b26-9c16-8a2fe7655848",
    "value": [
        false,
        ""
    ]
}